\relax 
\providecommand\hyper@newdestlabel[2]{}
\providecommand\HyperFirstAtBeginDocument{\AtBeginDocument}
\HyperFirstAtBeginDocument{\ifx\hyper@anchor\@undefined
\global\let\oldcontentsline\contentsline
\gdef\contentsline#1#2#3#4{\oldcontentsline{#1}{#2}{#3}}
\global\let\oldnewlabel\newlabel
\gdef\newlabel#1#2{\newlabelxx{#1}#2}
\gdef\newlabelxx#1#2#3#4#5#6{\oldnewlabel{#1}{{#2}{#3}}}
\AtEndDocument{\ifx\hyper@anchor\@undefined
\let\contentsline\oldcontentsline
\let\newlabel\oldnewlabel
\fi}
\fi}
\global\let\hyper@last\relax 
\gdef\HyperFirstAtBeginDocument#1{#1}
\providecommand\HyField@AuxAddToFields[1]{}
\providecommand\HyField@AuxAddToCoFields[2]{}
\bibstyle{biblatex}
\bibdata{plot-blx}
\citation{biblatex-control}
\@writefile{toc}{\boolfalse {citerequest}\boolfalse {citetracker}\boolfalse {pagetracker}\boolfalse {backtracker}\relax }
\@writefile{lof}{\boolfalse {citerequest}\boolfalse {citetracker}\boolfalse {pagetracker}\boolfalse {backtracker}\relax }
\@writefile{lot}{\boolfalse {citerequest}\boolfalse {citetracker}\boolfalse {pagetracker}\boolfalse {backtracker}\relax }
\select@language{UKenglish}
\@writefile{toc}{\defcounter {refsection}{0}\relax }\@writefile{toc}{\select@language{UKenglish}}
\@writefile{lof}{\defcounter {refsection}{0}\relax }\@writefile{lof}{\select@language{UKenglish}}
\@writefile{lot}{\defcounter {refsection}{0}\relax }\@writefile{lot}{\select@language{UKenglish}}
\@writefile{toc}{\contentsline {section}{\numberline {1}Content}{1}{section.1}}
\@writefile{toc}{\contentsline {section}{\numberline {2}Masses}{1}{section.2}}
\@writefile{lot}{\contentsline {table}{\numberline {1}{\ignorespaces  Comparison of mean top mass reconstructed from various CR schemes. The columns go as follows: under first are names of CR scheme, second includes mean values of top mass with its RMS, third represent comparison to default resOff model, fourth rescalling factor, fifth mean value of top mass after rescalling and the last is again comparison of mean top mass but after rescalling.}}{2}{table.1}}
\@writefile{lot}{\contentsline {table}{\numberline {2}{\ignorespaces  Comparison of fit values of top mass reconstructed in various CR schemes. The columns go as follows: in the first are names of CR scheme, second includes fit values of top mass with fit uncertainty, third represents comparison to default resOff model.}}{2}{table.2}}
\newlabel{t:tmass}{{2}{2}{Comparison of fit values of top mass reconstructed in various CR schemes. The columns go as follows: in the first are names of CR scheme, second includes fit values of top mass with fit uncertainty, third represents comparison to default resOff model}{table.2}{}}
\@writefile{lof}{\contentsline {figure}{\numberline {1}{\ignorespaces  Pseudoleptonic top mass (a), pseudohadronic top mass (b), leptonicly decaying W mass (c), hadronicaly decaying W mass (d) }}{3}{figure.1}}
\@writefile{lof}{\contentsline {subfigure}{\numberline{(a)}{\ignorespaces {}}}{3}{figure.1}}
\@writefile{lof}{\contentsline {subfigure}{\numberline{(b)}{\ignorespaces {}}}{3}{figure.1}}
\@writefile{lof}{\contentsline {subfigure}{\numberline{(c)}{\ignorespaces {}}}{3}{figure.1}}
\@writefile{lof}{\contentsline {subfigure}{\numberline{(d)}{\ignorespaces {}}}{3}{figure.1}}
\newlabel{syst:}{{1}{3}{Pseudoleptonic top mass (a), pseudohadronic top mass (b), leptonicly decaying W mass (c), hadronicaly decaying W mass (d)}{figure.1}{}}
\@writefile{lot}{\contentsline {table}{\numberline {3}{\ignorespaces  Comparison of fit and mean values of top mass reconstructed from various CR schemes. The columns go as follows: under first are names of CR scheme, second includes mean values of top mass with RMS, third represent comparison to default resOff model, fourth fit value with its uncertainty and the last comparison to default resOff model}}{3}{table.3}}
\@writefile{lot}{\contentsline {table}{\numberline {4}{\ignorespaces  The last column represents the difference in mass between a given model and default resOff model }}{4}{table.4}}
\@writefile{toc}{\contentsline {section}{\numberline {3}Basic UE observables}{4}{section.3}}
\@writefile{toc}{\contentsline {subsection}{\numberline {3.1}Nch distribution}{5}{subsection.3.1}}
\@writefile{lof}{\contentsline {figure}{\numberline {2}{\ignorespaces   Charged particle multiplicity in \leavevmode {\color {red} different regions} }}{6}{figure.2}}
\@writefile{lof}{\contentsline {subfigure}{\numberline{(a)}{\ignorespaces {}}}{6}{figure.2}}
\@writefile{lof}{\contentsline {subfigure}{\numberline{(b)}{\ignorespaces {}}}{6}{figure.2}}
\@writefile{lof}{\contentsline {subfigure}{\numberline{(c)}{\ignorespaces {}}}{6}{figure.2}}
\@writefile{lof}{\contentsline {subfigure}{\numberline{(d)}{\ignorespaces {}}}{6}{figure.2}}
\@writefile{lof}{\contentsline {subfigure}{\numberline{(e)}{\ignorespaces {}}}{6}{figure.2}}
\@writefile{lof}{\contentsline {subfigure}{\numberline{(f)}{\ignorespaces {}}}{6}{figure.2}}
\@writefile{lof}{\contentsline {subfigure}{\numberline{(g)}{\ignorespaces {}}}{6}{figure.2}}
\@writefile{lof}{\contentsline {subfigure}{\numberline{(h)}{\ignorespaces {}}}{6}{figure.2}}
\@writefile{lof}{\contentsline {subfigure}{\numberline{(i)}{\ignorespaces {}}}{6}{figure.2}}
\@writefile{lof}{\contentsline {subfigure}{\numberline{(j)}{\ignorespaces {}}}{6}{figure.2}}
\@writefile{lof}{\contentsline {subfigure}{\numberline{(k)}{\ignorespaces {}}}{6}{figure.2}}
\@writefile{lof}{\contentsline {subfigure}{\numberline{(l)}{\ignorespaces {}}}{6}{figure.2}}
\@writefile{toc}{\contentsline {subsection}{\numberline {3.2}Pt distribution}{7}{subsection.3.2}}
\@writefile{lof}{\contentsline {figure}{\numberline {3}{\ignorespaces   Charged particle transverse momentum in \leavevmode {\color {red} different regions} }}{8}{figure.3}}
\@writefile{lof}{\contentsline {subfigure}{\numberline{(a)}{\ignorespaces {}}}{8}{figure.3}}
\@writefile{lof}{\contentsline {subfigure}{\numberline{(b)}{\ignorespaces {}}}{8}{figure.3}}
\@writefile{lof}{\contentsline {subfigure}{\numberline{(c)}{\ignorespaces {}}}{8}{figure.3}}
\@writefile{lof}{\contentsline {subfigure}{\numberline{(d)}{\ignorespaces {}}}{8}{figure.3}}
\@writefile{lof}{\contentsline {subfigure}{\numberline{(e)}{\ignorespaces {}}}{8}{figure.3}}
\@writefile{lof}{\contentsline {subfigure}{\numberline{(f)}{\ignorespaces {}}}{8}{figure.3}}
\@writefile{lof}{\contentsline {subfigure}{\numberline{(g)}{\ignorespaces {}}}{8}{figure.3}}
\@writefile{lof}{\contentsline {subfigure}{\numberline{(h)}{\ignorespaces {}}}{8}{figure.3}}
\@writefile{lof}{\contentsline {subfigure}{\numberline{(i)}{\ignorespaces {}}}{8}{figure.3}}
\@writefile{lof}{\contentsline {subfigure}{\numberline{(j)}{\ignorespaces {}}}{8}{figure.3}}
\@writefile{lof}{\contentsline {subfigure}{\numberline{(k)}{\ignorespaces {}}}{8}{figure.3}}
\@writefile{lof}{\contentsline {subfigure}{\numberline{(l)}{\ignorespaces {}}}{8}{figure.3}}
\@writefile{toc}{\contentsline {subsection}{\numberline {3.3}Sumpt distribution}{9}{subsection.3.3}}
\@writefile{lof}{\contentsline {figure}{\numberline {4}{\ignorespaces  Scalar sum of charged particle transverse momentum in \leavevmode {\color {red} different regions} }}{10}{figure.4}}
\@writefile{lof}{\contentsline {subfigure}{\numberline{(a)}{\ignorespaces {}}}{10}{figure.4}}
\@writefile{lof}{\contentsline {subfigure}{\numberline{(b)}{\ignorespaces {}}}{10}{figure.4}}
\@writefile{lof}{\contentsline {subfigure}{\numberline{(c)}{\ignorespaces {}}}{10}{figure.4}}
\@writefile{lof}{\contentsline {subfigure}{\numberline{(d)}{\ignorespaces {}}}{10}{figure.4}}
\@writefile{lof}{\contentsline {subfigure}{\numberline{(e)}{\ignorespaces {}}}{10}{figure.4}}
\@writefile{lof}{\contentsline {subfigure}{\numberline{(f)}{\ignorespaces {}}}{10}{figure.4}}
\@writefile{lof}{\contentsline {subfigure}{\numberline{(g)}{\ignorespaces {}}}{10}{figure.4}}
\@writefile{lof}{\contentsline {subfigure}{\numberline{(h)}{\ignorespaces {}}}{10}{figure.4}}
\@writefile{lof}{\contentsline {subfigure}{\numberline{(i)}{\ignorespaces {}}}{10}{figure.4}}
\@writefile{lof}{\contentsline {subfigure}{\numberline{(j)}{\ignorespaces {}}}{10}{figure.4}}
\@writefile{lof}{\contentsline {subfigure}{\numberline{(k)}{\ignorespaces {}}}{10}{figure.4}}
\@writefile{lof}{\contentsline {subfigure}{\numberline{(l)}{\ignorespaces {}}}{10}{figure.4}}
\@writefile{toc}{\contentsline {subsection}{\numberline {3.4}Mean sumpt wrt Nch}{11}{subsection.3.4}}
\@writefile{lof}{\contentsline {figure}{\numberline {5}{\ignorespaces   Sum of charged particle transverse momentum in \leavevmode {\color {red} all regions} with respect to their multiplicity }}{12}{figure.5}}
\@writefile{lof}{\contentsline {subfigure}{\numberline{(a)}{\ignorespaces {}}}{12}{figure.5}}
\@writefile{lof}{\contentsline {subfigure}{\numberline{(b)}{\ignorespaces {}}}{12}{figure.5}}
\@writefile{lof}{\contentsline {subfigure}{\numberline{(c)}{\ignorespaces {}}}{12}{figure.5}}
\@writefile{lof}{\contentsline {subfigure}{\numberline{(d)}{\ignorespaces {}}}{12}{figure.5}}
\@writefile{lof}{\contentsline {subfigure}{\numberline{(e)}{\ignorespaces {}}}{12}{figure.5}}
\@writefile{lof}{\contentsline {subfigure}{\numberline{(f)}{\ignorespaces {}}}{12}{figure.5}}
\@writefile{lof}{\contentsline {subfigure}{\numberline{(g)}{\ignorespaces {}}}{12}{figure.5}}
\@writefile{lof}{\contentsline {subfigure}{\numberline{(h)}{\ignorespaces {}}}{12}{figure.5}}
\@writefile{lof}{\contentsline {subfigure}{\numberline{(i)}{\ignorespaces {}}}{12}{figure.5}}
\@writefile{lof}{\contentsline {subfigure}{\numberline{(j)}{\ignorespaces {}}}{12}{figure.5}}
\@writefile{lof}{\contentsline {subfigure}{\numberline{(k)}{\ignorespaces {}}}{12}{figure.5}}
\@writefile{lof}{\contentsline {subfigure}{\numberline{(l)}{\ignorespaces {}}}{12}{figure.5}}
\@writefile{toc}{\contentsline {subsection}{\numberline {3.5}Mean pt wrt Nch}{13}{subsection.3.5}}
\@writefile{lof}{\contentsline {figure}{\numberline {6}{\ignorespaces   Mean transverse momentum of charged particle in \leavevmode {\color {red} all regions} with respect to their multiplicity }}{14}{figure.6}}
\@writefile{lof}{\contentsline {subfigure}{\numberline{(a)}{\ignorespaces {}}}{14}{figure.6}}
\@writefile{lof}{\contentsline {subfigure}{\numberline{(b)}{\ignorespaces {}}}{14}{figure.6}}
\@writefile{lof}{\contentsline {subfigure}{\numberline{(c)}{\ignorespaces {}}}{14}{figure.6}}
\@writefile{lof}{\contentsline {subfigure}{\numberline{(d)}{\ignorespaces {}}}{14}{figure.6}}
\@writefile{lof}{\contentsline {subfigure}{\numberline{(e)}{\ignorespaces {}}}{14}{figure.6}}
\@writefile{lof}{\contentsline {subfigure}{\numberline{(f)}{\ignorespaces {}}}{14}{figure.6}}
\@writefile{lof}{\contentsline {subfigure}{\numberline{(g)}{\ignorespaces {}}}{14}{figure.6}}
\@writefile{lof}{\contentsline {subfigure}{\numberline{(h)}{\ignorespaces {}}}{14}{figure.6}}
\@writefile{lof}{\contentsline {subfigure}{\numberline{(i)}{\ignorespaces {}}}{14}{figure.6}}
\@writefile{lof}{\contentsline {subfigure}{\numberline{(j)}{\ignorespaces {}}}{14}{figure.6}}
\@writefile{lof}{\contentsline {subfigure}{\numberline{(k)}{\ignorespaces {}}}{14}{figure.6}}
\@writefile{lof}{\contentsline {subfigure}{\numberline{(l)}{\ignorespaces {}}}{14}{figure.6}}
\@writefile{toc}{\contentsline {section}{\numberline {4}Appendix}{15}{section.4}}
\@writefile{lof}{\contentsline {figure}{\numberline {7}{\ignorespaces  Transverse momentum of pseudoleptonic top (a), pseudohadronic top (b), W decaying leptonicaly (c), W decaying hadronicaly (d), all lightjets (e), leading lightjet (f), all except two main lightjets (g), electron (h), muon (i).}}{16}{figure.7}}
\@writefile{lof}{\contentsline {subfigure}{\numberline{(a)}{\ignorespaces {}}}{16}{figure.7}}
\@writefile{lof}{\contentsline {subfigure}{\numberline{(b)}{\ignorespaces {}}}{16}{figure.7}}
\@writefile{lof}{\contentsline {subfigure}{\numberline{(c)}{\ignorespaces {}}}{16}{figure.7}}
\@writefile{lof}{\contentsline {subfigure}{\numberline{(d)}{\ignorespaces {}}}{16}{figure.7}}
\@writefile{lof}{\contentsline {subfigure}{\numberline{(e)}{\ignorespaces {}}}{16}{figure.7}}
\@writefile{lof}{\contentsline {subfigure}{\numberline{(f)}{\ignorespaces {}}}{16}{figure.7}}
\@writefile{lof}{\contentsline {subfigure}{\numberline{(g)}{\ignorespaces {}}}{16}{figure.7}}
\@writefile{lof}{\contentsline {subfigure}{\numberline{(h)}{\ignorespaces {}}}{16}{figure.7}}
\@writefile{lof}{\contentsline {subfigure}{\numberline{(i)}{\ignorespaces {}}}{16}{figure.7}}
\newlabel{syst:}{{7}{16}{Transverse momentum of pseudoleptonic top (a), pseudohadronic top (b), W decaying leptonicaly (c), W decaying hadronicaly (d), all lightjets (e), leading lightjet (f), all except two main lightjets (g), electron (h), muon (i)}{figure.7}{}}
\@writefile{toc}{\contentsline {section}{\numberline {5}Bjet shapes}{17}{section.5}}
\@writefile{toc}{\contentsline {subsubsection}{\numberline {5.0.1}Differential Bjet SUMPT shapes}{17}{subsubsection.5.0.1}}
\@writefile{lof}{\contentsline {figure}{\numberline {8}{\ignorespaces  \textbf  {Left:}  Differential bjet shape in r = 0.02 - 0.4 R   jet \ensuremath  {\mathrm  {p}_{\mathrm  {T}}}\xspace  $>$ 25 GeV }}{18}{figure.8}}
\@writefile{lof}{\contentsline {subfigure}{\numberline{(a)}{\ignorespaces {}}}{18}{figure.8}}
\@writefile{lof}{\contentsline {subfigure}{\numberline{(b)}{\ignorespaces {}}}{18}{figure.8}}
\@writefile{lof}{\contentsline {subfigure}{\numberline{(c)}{\ignorespaces {}}}{18}{figure.8}}
\@writefile{lof}{\contentsline {subfigure}{\numberline{(d)}{\ignorespaces {}}}{18}{figure.8}}
\@writefile{lof}{\contentsline {subfigure}{\numberline{(e)}{\ignorespaces {}}}{18}{figure.8}}
\@writefile{lof}{\contentsline {subfigure}{\numberline{(f)}{\ignorespaces {}}}{18}{figure.8}}
\@writefile{lof}{\contentsline {subfigure}{\numberline{(g)}{\ignorespaces {}}}{18}{figure.8}}
\@writefile{lof}{\contentsline {subfigure}{\numberline{(h)}{\ignorespaces {}}}{18}{figure.8}}
\@writefile{lof}{\contentsline {subfigure}{\numberline{(i)}{\ignorespaces {}}}{18}{figure.8}}
\@writefile{lof}{\contentsline {subfigure}{\numberline{(j)}{\ignorespaces {}}}{18}{figure.8}}
\newlabel{syst:}{{8}{18}{\textbf {Left:} \tdshape {bjet}{0.02 - 0.4 R } \tcpta }{figure.8}{}}
\@writefile{lof}{\contentsline {figure}{\numberline {9}{\ignorespaces  \textbf  {Left:}  Differential bjet shape in r = 0.02 - 0.4 R   jet 25 GeV $<$ \ensuremath  {\mathrm  {p}_{\mathrm  {T}}}\xspace  $<$ 50 GeV }}{19}{figure.9}}
\@writefile{lof}{\contentsline {subfigure}{\numberline{(a)}{\ignorespaces {}}}{19}{figure.9}}
\@writefile{lof}{\contentsline {subfigure}{\numberline{(b)}{\ignorespaces {}}}{19}{figure.9}}
\@writefile{lof}{\contentsline {subfigure}{\numberline{(c)}{\ignorespaces {}}}{19}{figure.9}}
\@writefile{lof}{\contentsline {subfigure}{\numberline{(d)}{\ignorespaces {}}}{19}{figure.9}}
\@writefile{lof}{\contentsline {subfigure}{\numberline{(e)}{\ignorespaces {}}}{19}{figure.9}}
\@writefile{lof}{\contentsline {subfigure}{\numberline{(f)}{\ignorespaces {}}}{19}{figure.9}}
\@writefile{lof}{\contentsline {subfigure}{\numberline{(g)}{\ignorespaces {}}}{19}{figure.9}}
\@writefile{lof}{\contentsline {subfigure}{\numberline{(h)}{\ignorespaces {}}}{19}{figure.9}}
\@writefile{lof}{\contentsline {subfigure}{\numberline{(i)}{\ignorespaces {}}}{19}{figure.9}}
\@writefile{lof}{\contentsline {subfigure}{\numberline{(j)}{\ignorespaces {}}}{19}{figure.9}}
\newlabel{syst:}{{9}{19}{\textbf {Left:} \tdshape {bjet}{0.02 - 0.4 R } \tcptb }{figure.9}{}}
\@writefile{lof}{\contentsline {figure}{\numberline {10}{\ignorespaces  \textbf  {Left:}  Differential bjet shape in r = 0.02 - 0.4 R   jet 50 GeV $<$ \ensuremath  {\mathrm  {p}_{\mathrm  {T}}}\xspace  $<$ 100 GeV }}{20}{figure.10}}
\@writefile{lof}{\contentsline {subfigure}{\numberline{(a)}{\ignorespaces {}}}{20}{figure.10}}
\@writefile{lof}{\contentsline {subfigure}{\numberline{(b)}{\ignorespaces {}}}{20}{figure.10}}
\@writefile{lof}{\contentsline {subfigure}{\numberline{(c)}{\ignorespaces {}}}{20}{figure.10}}
\@writefile{lof}{\contentsline {subfigure}{\numberline{(d)}{\ignorespaces {}}}{20}{figure.10}}
\@writefile{lof}{\contentsline {subfigure}{\numberline{(e)}{\ignorespaces {}}}{20}{figure.10}}
\@writefile{lof}{\contentsline {subfigure}{\numberline{(f)}{\ignorespaces {}}}{20}{figure.10}}
\@writefile{lof}{\contentsline {subfigure}{\numberline{(g)}{\ignorespaces {}}}{20}{figure.10}}
\@writefile{lof}{\contentsline {subfigure}{\numberline{(h)}{\ignorespaces {}}}{20}{figure.10}}
\@writefile{lof}{\contentsline {subfigure}{\numberline{(i)}{\ignorespaces {}}}{20}{figure.10}}
\@writefile{lof}{\contentsline {subfigure}{\numberline{(j)}{\ignorespaces {}}}{20}{figure.10}}
\newlabel{syst:}{{10}{20}{\textbf {Left:} \tdshape {bjet}{0.02 - 0.4 R } \tcptc }{figure.10}{}}
\@writefile{lof}{\contentsline {figure}{\numberline {11}{\ignorespaces  \textbf  {Left:}  Differential bjet shape in r = 0.02 - 0.4 R   jet \ensuremath  {\mathrm  {p}_{\mathrm  {T}}}\xspace  $>$ 100 GeV }}{21}{figure.11}}
\@writefile{lof}{\contentsline {subfigure}{\numberline{(a)}{\ignorespaces {}}}{21}{figure.11}}
\@writefile{lof}{\contentsline {subfigure}{\numberline{(b)}{\ignorespaces {}}}{21}{figure.11}}
\@writefile{lof}{\contentsline {subfigure}{\numberline{(c)}{\ignorespaces {}}}{21}{figure.11}}
\@writefile{lof}{\contentsline {subfigure}{\numberline{(d)}{\ignorespaces {}}}{21}{figure.11}}
\@writefile{lof}{\contentsline {subfigure}{\numberline{(e)}{\ignorespaces {}}}{21}{figure.11}}
\@writefile{lof}{\contentsline {subfigure}{\numberline{(f)}{\ignorespaces {}}}{21}{figure.11}}
\@writefile{lof}{\contentsline {subfigure}{\numberline{(g)}{\ignorespaces {}}}{21}{figure.11}}
\@writefile{lof}{\contentsline {subfigure}{\numberline{(h)}{\ignorespaces {}}}{21}{figure.11}}
\@writefile{lof}{\contentsline {subfigure}{\numberline{(i)}{\ignorespaces {}}}{21}{figure.11}}
\@writefile{lof}{\contentsline {subfigure}{\numberline{(j)}{\ignorespaces {}}}{21}{figure.11}}
\newlabel{syst:}{{11}{21}{\textbf {Left:} \tdshape {bjet}{0.02 - 0.4 R } \tcptd }{figure.11}{}}
\@writefile{toc}{\contentsline {subsubsection}{\numberline {5.0.2}Differential Bjet multiplicity shapes}{22}{subsubsection.5.0.2}}
\@writefile{lof}{\contentsline {figure}{\numberline {12}{\ignorespaces  \textbf  {Left:}  Charged particle multiplicity in \leavevmode {\color {red}bjet}{0.02 - 0.4 R }  jet \ensuremath  {\mathrm  {p}_{\mathrm  {T}}}\xspace  $>$ 25 GeV }}{23}{figure.12}}
\@writefile{lof}{\contentsline {subfigure}{\numberline{(a)}{\ignorespaces {}}}{23}{figure.12}}
\@writefile{lof}{\contentsline {subfigure}{\numberline{(b)}{\ignorespaces {}}}{23}{figure.12}}
\@writefile{lof}{\contentsline {subfigure}{\numberline{(c)}{\ignorespaces {}}}{23}{figure.12}}
\@writefile{lof}{\contentsline {subfigure}{\numberline{(d)}{\ignorespaces {}}}{23}{figure.12}}
\@writefile{lof}{\contentsline {subfigure}{\numberline{(e)}{\ignorespaces {}}}{23}{figure.12}}
\@writefile{lof}{\contentsline {subfigure}{\numberline{(f)}{\ignorespaces {}}}{23}{figure.12}}
\@writefile{lof}{\contentsline {subfigure}{\numberline{(g)}{\ignorespaces {}}}{23}{figure.12}}
\@writefile{lof}{\contentsline {subfigure}{\numberline{(h)}{\ignorespaces {}}}{23}{figure.12}}
\@writefile{lof}{\contentsline {subfigure}{\numberline{(i)}{\ignorespaces {}}}{23}{figure.12}}
\@writefile{lof}{\contentsline {subfigure}{\numberline{(j)}{\ignorespaces {}}}{23}{figure.12}}
\newlabel{syst:}{{12}{23}{\textbf {Left:} \tnch {bjet}{0.02 - 0.4 R } \tcpta }{figure.12}{}}
\@writefile{lof}{\contentsline {figure}{\numberline {13}{\ignorespaces  \textbf  {Left:}  Charged particle multiplicity in \leavevmode {\color {red}bjet}{0.02 - 0.4 R }  jet 25 GeV $<$ \ensuremath  {\mathrm  {p}_{\mathrm  {T}}}\xspace  $<$ 50 GeV }}{24}{figure.13}}
\@writefile{lof}{\contentsline {subfigure}{\numberline{(a)}{\ignorespaces {}}}{24}{figure.13}}
\@writefile{lof}{\contentsline {subfigure}{\numberline{(b)}{\ignorespaces {}}}{24}{figure.13}}
\@writefile{lof}{\contentsline {subfigure}{\numberline{(c)}{\ignorespaces {}}}{24}{figure.13}}
\@writefile{lof}{\contentsline {subfigure}{\numberline{(d)}{\ignorespaces {}}}{24}{figure.13}}
\@writefile{lof}{\contentsline {subfigure}{\numberline{(e)}{\ignorespaces {}}}{24}{figure.13}}
\@writefile{lof}{\contentsline {subfigure}{\numberline{(f)}{\ignorespaces {}}}{24}{figure.13}}
\@writefile{lof}{\contentsline {subfigure}{\numberline{(g)}{\ignorespaces {}}}{24}{figure.13}}
\@writefile{lof}{\contentsline {subfigure}{\numberline{(h)}{\ignorespaces {}}}{24}{figure.13}}
\@writefile{lof}{\contentsline {subfigure}{\numberline{(i)}{\ignorespaces {}}}{24}{figure.13}}
\@writefile{lof}{\contentsline {subfigure}{\numberline{(j)}{\ignorespaces {}}}{24}{figure.13}}
\newlabel{syst:}{{13}{24}{\textbf {Left:} \tnch {bjet}{0.02 - 0.4 R } \tcptb }{figure.13}{}}
\@writefile{lof}{\contentsline {figure}{\numberline {14}{\ignorespaces  \textbf  {Left:}  Charged particle multiplicity in \leavevmode {\color {red}bjet}{0.02 - 0.4 R }  jet 50 GeV $<$ \ensuremath  {\mathrm  {p}_{\mathrm  {T}}}\xspace  $<$ 100 GeV }}{25}{figure.14}}
\@writefile{lof}{\contentsline {subfigure}{\numberline{(a)}{\ignorespaces {}}}{25}{figure.14}}
\@writefile{lof}{\contentsline {subfigure}{\numberline{(b)}{\ignorespaces {}}}{25}{figure.14}}
\@writefile{lof}{\contentsline {subfigure}{\numberline{(c)}{\ignorespaces {}}}{25}{figure.14}}
\@writefile{lof}{\contentsline {subfigure}{\numberline{(d)}{\ignorespaces {}}}{25}{figure.14}}
\@writefile{lof}{\contentsline {subfigure}{\numberline{(e)}{\ignorespaces {}}}{25}{figure.14}}
\@writefile{lof}{\contentsline {subfigure}{\numberline{(f)}{\ignorespaces {}}}{25}{figure.14}}
\@writefile{lof}{\contentsline {subfigure}{\numberline{(g)}{\ignorespaces {}}}{25}{figure.14}}
\@writefile{lof}{\contentsline {subfigure}{\numberline{(h)}{\ignorespaces {}}}{25}{figure.14}}
\@writefile{lof}{\contentsline {subfigure}{\numberline{(i)}{\ignorespaces {}}}{25}{figure.14}}
\@writefile{lof}{\contentsline {subfigure}{\numberline{(j)}{\ignorespaces {}}}{25}{figure.14}}
\newlabel{syst:}{{14}{25}{\textbf {Left:} \tnch {bjet}{0.02 - 0.4 R } \tcptc }{figure.14}{}}
\@writefile{lof}{\contentsline {figure}{\numberline {15}{\ignorespaces  \textbf  {Left:}  Charged particle multiplicity in \leavevmode {\color {red}bjet}{0.02 - 0.4 R }  jet \ensuremath  {\mathrm  {p}_{\mathrm  {T}}}\xspace  $>$ 100 GeV }}{26}{figure.15}}
\@writefile{lof}{\contentsline {subfigure}{\numberline{(a)}{\ignorespaces {}}}{26}{figure.15}}
\@writefile{lof}{\contentsline {subfigure}{\numberline{(b)}{\ignorespaces {}}}{26}{figure.15}}
\@writefile{lof}{\contentsline {subfigure}{\numberline{(c)}{\ignorespaces {}}}{26}{figure.15}}
\@writefile{lof}{\contentsline {subfigure}{\numberline{(d)}{\ignorespaces {}}}{26}{figure.15}}
\@writefile{lof}{\contentsline {subfigure}{\numberline{(e)}{\ignorespaces {}}}{26}{figure.15}}
\@writefile{lof}{\contentsline {subfigure}{\numberline{(f)}{\ignorespaces {}}}{26}{figure.15}}
\@writefile{lof}{\contentsline {subfigure}{\numberline{(g)}{\ignorespaces {}}}{26}{figure.15}}
\@writefile{lof}{\contentsline {subfigure}{\numberline{(h)}{\ignorespaces {}}}{26}{figure.15}}
\@writefile{lof}{\contentsline {subfigure}{\numberline{(i)}{\ignorespaces {}}}{26}{figure.15}}
\@writefile{lof}{\contentsline {subfigure}{\numberline{(j)}{\ignorespaces {}}}{26}{figure.15}}
\newlabel{syst:}{{15}{26}{\textbf {Left:} \tnch {bjet}{0.02 - 0.4 R } \tcptd }{figure.15}{}}
\@writefile{toc}{\contentsline {section}{\numberline {6}Outside Bjet shapes}{27}{section.6}}
\@writefile{toc}{\contentsline {section}{\numberline {7}Lightjet shapes}{27}{section.7}}
\@writefile{toc}{\contentsline {section}{\numberline {8}Outside Lightjet shapes}{27}{section.8}}
\@writefile{toc}{\contentsline {section}{\numberline {9}Basic UE observables (all regions)}{27}{section.9}}
\@writefile{toc}{\contentsline {section}{\numberline {10}Basic UE observables with respect to pttbar}{27}{section.10}}
\@writefile{toc}{\contentsline {section}{\numberline {11}Area between jets}{27}{section.11}}
\@writefile{toc}{\contentsline {section}{\numberline {12}Pull angle}{27}{section.12}}
